Admisión en la Universidad
…
Conjunto de Datos Inicial

Admission_Dataset_Initial

## # A tibble: 400 × 10
##    Serial Gender GRE_Score TOEFL_Score   SOP   LOR  CGPA Resea…¹ Unive…² Chanc…³
##     <dbl> <chr>      <dbl>       <dbl> <dbl> <dbl> <dbl> <chr>   <chr>     <dbl>
##  1      1 M            337         118   4.5   4.5  9.65 resear… four_s…    0.92
##  2      2 F            324         107   4     4.5  8.87 resear… four_s…    0.76
##  3      3 M            316         104   3     3.5  8    resear… three_…    0.72
##  4      4 M            322         110   3.5   2.5  8.67 resear… three_…    0.8 
##  5      5 M            314         103   2     3    8.21 no-res… two_st…    0.65
##  6      6 M            330         115   4.5   3    9.34 resear… five_s…    0.9 
##  7      7 M            321         109   3     4    8.2  resear… three_…    0.75
##  8      8 M            308         101   3     4    7.9  no-res… two_st…    0.68
##  9      9 F            302         102   2     1.5  8    no-res… one_st…    0.5 
## 10     10 F            323         108   3.5   3    8.6  no-res… three_…    0.45
## # … with 390 more rows, and abbreviated variable names ¹​Research,
## #   ²​University_Rating, ³​Chance_of_Admit
…
Conjunto de Datos Reescrito

Admission_Dataset

## # A tibble: 400 × 10
##    Serial Gender GRE_Score TOEFL_Score   SOP   LOR  CGPA Resea…¹ Unive…² Chanc…³
##     <dbl>  <dbl>     <dbl>       <dbl> <dbl> <dbl> <dbl>   <dbl>   <dbl>   <dbl>
##  1      1      1       337         118   4.5   4.5  9.65       1       4    0.92
##  2      2      0       324         107   4     4.5  8.87       1       4    0.76
##  3      3      1       316         104   3     3.5  8          1       3    0.72
##  4      4      1       322         110   3.5   2.5  8.67       1       3    0.8 
##  5      5      1       314         103   2     3    8.21       0       2    0.65
##  6      6      1       330         115   4.5   3    9.34       1       5    0.9 
##  7      7      1       321         109   3     4    8.2        1       3    0.75
##  8      8      1       308         101   3     4    7.9        0       2    0.68
##  9      9      0       302         102   2     1.5  8          0       1    0.5 
## 10     10      0       323         108   3.5   3    8.6        0       3    0.45
## # … with 390 more rows, and abbreviated variable names ¹​Research,
## #   ²​University_Rating, ³​Chance_of_Admit
…
